我的央视,#genre#
CCTV-1综合,http://ottrrs.hl.chinamobile.com/PLTV/88888888/224/3221226016/index.m3u8$ottrrs.hl1
CCTV-1综合,http://ottrrs.hl.chinamobile.com/PLTV/88888888/224/3221226514/index.m3u8$ottrrs.hl2
CCTV-1综合,http://ottrrs.hl.chinamobile.com/PLTV/88888888/224/3221226559/index.m3u8$ottrrs.hl3
CCTV-1综合,http://ottrrs.hl.chinamobile.com/TVOD/88888888/224/3221226016/index.m3u8$ottrrs.hl4
CCTV-1综合,http://ottrrs.hl.chinamobile.com/TVOD/88888888/224/3221226559/index.m3u8$ottrrs.hl5
CCTV-1综合,http://dbiptv.sn.chinamobile.com/PLTV/88888888/224/3221225804/index.m3u8
CCTV-1综合,http://dbiptv.sn.chinamobile.com/PLTV/88888888/224/3221226231/index.m3u8
CCTV-1综合,http://39.134.66.4/PLTV/88888888/224/3221225816/index.m3u8
CCTV-1综合,http://39.134.66.4/PLTV/88888888/224/3221226060/index.m3u8

CCTV-2财经,http://ottrrs.hl.chinamobile.com/PLTV/88888888/224/3221225588/index.m3u8$ottrrs.hl1
CCTV-2财经,http://ottrrs.hl.chinamobile.com/PLTV/88888888/224/3221226540/index.m3u8$ottrrs.hl2
CCTV-2财经,http://ottrrs.hl.chinamobile.com/TVOD/88888888/224/3221225588/index.m3u8$ottrrs.hl3
CCTV-2财经,http://ottrrs.hl.chinamobile.com/TVOD/88888888/224/3221226540/index.m3u8$ottrrs.hl4
CCTV-2财经,http://dbiptv.sn.chinamobile.com/PLTV/88888888/224/3221226195/index.m3u8
CCTV-2财经,http://dbiptv.sn.chinamobile.com/PLTV/88888888/224/3221226224/index.m3u8
CCTV-2财经,http://39.134.66.4/PLTV/88888888/224/3221226079/index.m3u8

CCTV-3综艺,http://ottrrs.hl.chinamobile.com/PLTV/88888888/224/3221226021/index.m3u8$ottrrs.hl1
CCTV-3综艺,http://ottrrs.hl.chinamobile.com/TVOD/88888888/224/3221226021/index.m3u8$ottrrs.hl2
CCTV-3综艺,http://dbiptv.sn.chinamobile.com/PLTV/88888888/224/3221226397/index.m3u8
CCTV-3综艺,http://39.134.66.4/PLTV/88888888/224/3221225799/index.m3u8

CCTV-4中文国际,http://ottrrs.hl.chinamobile.com/PLTV/88888888/224/3221226007/index.m3u8$ottrrs.hl1
CCTV-4中文国际,http://ottrrs.hl.chinamobile.com/PLTV/88888888/224/3221226428/index.m3u8$ottrrs.hl2
CCTV-4中文国际,http://ottrrs.hl.chinamobile.com/TVOD/88888888/224/3221226428/index.m3u8$ottrrs.hl3
CCTV-4中文国际,http://dbiptv.sn.chinamobile.com/PLTV/88888888/224/3221226191/index.m3u8
CCTV-4中文国际,http://dbiptv.sn.chinamobile.com/PLTV/88888888/224/3221226223/index.m3u8
CCTV-4中文国际,http://39.134.66.4/PLTV/88888888/224/3221226092/index.m3u8

CCTV-6电影,http://ottrrs.hl.chinamobile.com/PLTV/88888888/224/3221226010/index.m3u8$ottrrs.hl1
CCTV-6电影,http://ottrrs.hl.chinamobile.com/TVOD/88888888/224/3221226010/index.m3u8$ottrrs.hl2
CCTV-6电影,http://dbiptv.sn.chinamobile.com/PLTV/88888888/224/3221226011/index.m3u8
CCTV-6电影,http://dbiptv.sn.chinamobile.com/PLTV/88888888/224/3221226393/index.m3u8
CCTV-6电影,http://39.134.66.4/PLTV/88888888/224/3221225814/index.m3u8

CCTV-7国防军事,http://ottrrs.hl.chinamobile.com/PLTV/88888888/224/3221225733/index.m3u8$ottrrs.hl1
CCTV-7国防军事,http://ottrrs.hl.chinamobile.com/TVOD/88888888/224/3221225733/index.m3u8$ottrrs.hl2
CCTV-7国防军事,http://dbiptv.sn.chinamobile.com/PLTV/88888888/224/3221226192/index.m3u8
CCTV-7国防军事,http://39.134.66.4/PLTV/88888888/224/3221225671/index.m3u8

CCTV-8电视剧,http://ottrrs.hl.chinamobile.com/PLTV/88888888/224/3221226008/index.m3u8$ottrrs.hl1
CCTV-8电视剧,http://ottrrs.hl.chinamobile.com/TVOD/88888888/224/3221226008/index.m3u8$ottrrs.hl2
CCTV-8电视剧,http://dbiptv.sn.chinamobile.com/PLTV/88888888/224/3221226012/index.m3u8
CCTV-8电视剧,http://dbiptv.sn.chinamobile.com/PLTV/88888888/224/3221226391/index.m3u8
CCTV-8电视剧,http://39.134.66.4/PLTV/88888888/224/3221225795/index.m3u8

CCTV-9纪录,http://ottrrs.hl.chinamobile.com/PLTV/88888888/224/3221225734/index.m3u8$ottrrs.hl1
CCTV-9纪录,http://ottrrs.hl.chinamobile.com/TVOD/88888888/224/3221225734/index.m3u8$ottrrs.hl2
CCTV-9纪录,http://dbiptv.sn.chinamobile.com/PLTV/88888888/224/3221226197/index.m3u8
CCTV-9纪录,http://39.134.66.4/PLTV/88888888/224/3221225676/index.m3u8

CCTV-10科教,http://ottrrs.hl.chinamobile.com/PLTV/88888888/224/3221225730/index.m3u8$ottrrs.hl1
CCTV-10科教,http://ottrrs.hl.chinamobile.com/PLTV/88888888/224/3221226473/index.m3u8$ottrrs.hl2
CCTV-10科教,http://ottrrs.hl.chinamobile.com/TVOD/88888888/224/3221225730/index.m3u8$ottrrs.hl3
CCTV-10科教,http://ottrrs.hl.chinamobile.com/TVOD/88888888/224/3221226473/index.m3u8$ottrrs.hl4
CCTV-10科教,http://dbiptv.sn.chinamobile.com/PLTV/88888888/224/3221226189/index.m3u8
CCTV-10科教,http://39.134.66.4/PLTV/88888888/224/3221225677/index.m3u8

CCTV-11戏曲,http://ottrrs.hl.chinamobile.com/PLTV/88888888/224/3221225597/index.m3u8$ottrrs.hl1
CCTV-11戏曲,http://ottrrs.hl.chinamobile.com/PLTV/88888888/224/3221226565/index.m3u8$ottrrs.hl2
CCTV-11戏曲,http://ottrrs.hl.chinamobile.com/TVOD/88888888/224/3221225597/index.m3u8$ottrrs.hl3
CCTV-11戏曲,http://ottrrs.hl.chinamobile.com/TVOD/88888888/224/3221226565/index.m3u8$ottrrs.hl4
CCTV-11戏曲,http://dbiptv.sn.chinamobile.com/PLTV/88888888/224/3221226240/index.m3u8

CCTV-12社会与法,http://ottrrs.hl.chinamobile.com/PLTV/88888888/224/3221225731/index.m3u8$ottrrs.hl1
CCTV-12社会与法,http://ottrrs.hl.chinamobile.com/PLTV/88888888/224/3221226568/index.m3u8$ottrrs.hl2
CCTV-12社会与法,http://ottrrs.hl.chinamobile.com/TVOD/88888888/224/3221225731/index.m3u8$ottrrs.hl3
CCTV-12社会与法,http://ottrrs.hl.chinamobile.com/TVOD/88888888/224/3221226568/index.m3u8$ottrrs.hl4
CCTV-12社会与法,http://dbiptv.sn.chinamobile.com/PLTV/88888888/224/3221226190/index.m3u8
CCTV-12社会与法,http://39.134.66.4/PLTV/88888888/224/3221225669/index.m3u8

CCTV-13新闻,http://ottrrs.hl.chinamobile.com/PLTV/88888888/224/3221226011/index.m3u8$ottrrs.hl1
CCTV-13新闻,http://ottrrs.hl.chinamobile.com/PLTV/88888888/224/3221226537/index.m3u8$ottrrs.hl2
CCTV-13新闻,http://ottrrs.hl.chinamobile.com/PLTV/88888888/224/3221226571/index.m3u8$ottrrs.hl3
CCTV-13新闻,http://ottrrs.hl.chinamobile.com/TVOD/88888888/224/3221226011/index.m3u8$ottrrs.hl4
CCTV-13新闻,http://ottrrs.hl.chinamobile.com/TVOD/88888888/224/3221226537/index.m3u8$ottrrs.hl5
CCTV-13新闻,http://ottrrs.hl.chinamobile.com/TVOD/88888888/224/3221226571/index.m3u8$ottrrs.hl6
CCTV-13新闻,http://dbiptv.sn.chinamobile.com/PLTV/88888888/224/3221226233/index.m3u8
CCTV-13新闻,http://39.134.66.4/PLTV/88888888/224/3221225812/index.m3u8
CCTV-13新闻,http://39.134.66.4/PLTV/88888888/224/3221226077/index.m3u8

CCTV-14少儿,http://ottrrs.hl.chinamobile.com/PLTV/88888888/224/3221225732/index.m3u8$ottrrs.hl1
CCTV-14少儿,http://ottrrs.hl.chinamobile.com/PLTV/88888888/224/3221226591/index.m3u8$ottrrs.hl2
CCTV-14少儿,http://ottrrs.hl.chinamobile.com/TVOD/88888888/224/3221225732/index.m3u8$ottrrs.hl3
CCTV-14少儿,http://ottrrs.hl.chinamobile.com/TVOD/88888888/224/3221226591/index.m3u8$ottrrs.hl4
CCTV-14少儿,http://dbiptv.sn.chinamobile.com/PLTV/88888888/224/3221226193/index.m3u8
CCTV-14少儿,http://39.134.66.4/PLTV/88888888/224/3221225674/index.m3u8

CCTV-15音乐,http://ottrrs.hl.chinamobile.com/PLTV/88888888/224/3221225601/index.m3u8$ottrrs.hl1
CCTV-15音乐,http://ottrrs.hl.chinamobile.com/PLTV/88888888/224/3221226476/index.m3u8$ottrrs.hl2
CCTV-15音乐,http://ottrrs.hl.chinamobile.com/TVOD/88888888/224/3221225601/index.m3u8$ottrrs.hl3
CCTV-15音乐,http://ottrrs.hl.chinamobile.com/TVOD/88888888/224/3221226476/index.m3u8$ottrrs.hl4
CCTV-15音乐,http://dbiptv.sn.chinamobile.com/PLTV/88888888/224/3221225785/index.m3u8
CCTV-15音乐,http://39.135.138.60:18890/PLTV/88888910/224/3221225641/index.m3u8

CCTV-17农业农村,http://ottrrs.hl.chinamobile.com/PLTV/88888888/224/3221225708/index.m3u8$ottrrs.hl1
CCTV-17农业农村,http://ottrrs.hl.chinamobile.com/PLTV/88888888/224/3221225765/index.m3u8$ottrrs.hl2
CCTV-17农业农村,http://ottrrs.hl.chinamobile.com/TVOD/88888888/224/3221225765/index.m3u8$ottrrs.hl3
CCTV-17农业农村,http://dbiptv.sn.chinamobile.com/PLTV/88888888/224/3221226198/index.m3u8
CCTV-17农业农村,http://39.134.66.4/PLTV/88888888/224/3221225708/index.m3u8

CCTV-世界地理,http://dbiptv.sn.chinamobile.com/PLTV/88888888/224/3221226947/index.m3u8

CCTV-风云剧场,http://dbiptv.sn.chinamobile.com/PLTV/88888888/224/3221226950/index.m3u8

CCTV-第一剧场,http://dbiptv.sn.chinamobile.com/PLTV/88888888/224/3221226959/index.m3u8

CCTV-怀旧剧场,http://dbiptv.sn.chinamobile.com/PLTV/88888888/224/3221226972/index.m3u8

CCTV-央视文化精品,http://dbiptv.sn.chinamobile.com/PLTV/88888888/224/3221226981/index.m3u8

CCTV-风云音乐,http://dbiptv.sn.chinamobile.com/PLTV/88888888/224/3221226953/index.m3u8

CCTV-兵器科技,http://dbiptv.sn.chinamobile.com/PLTV/88888888/224/3221226975/index.m3u8


我的卫视,#genre#
东方卫视,http://ottrrs.hl.chinamobile.com/PLTV/88888888/224/3221225735/index.m3u8$ottrrs.hl1
东方卫视,http://ottrrs.hl.chinamobile.com/PLTV/88888888/224/3221226336/index.m3u8$ottrrs.hl2
东方卫视,http://ottrrs.hl.chinamobile.com/PLTV/88888888/224/3221226345/index.m3u8$ottrrs.hl3
东方卫视,http://ottrrs.hl.chinamobile.com/TVOD/88888888/224/3221225735/index.m3u8$ottrrs.hl4
东方卫视,http://ottrrs.hl.chinamobile.com/TVOD/88888888/224/3221226345/index.m3u8$ottrrs.hl5
东方卫视,http://gslbserv.itv.cmvideo.cn:80/5000000010000032246/index.m3u8?channel-id=bestzb&Contentid=5000000010000032246&livemode=1&stbId=3$gslbserv
东方卫视,http://dbiptv.sn.chinamobile.com/PLTV/88888888/224/3221225797/index.m3u8
东方卫视,http://dbiptv.sn.chinamobile.com/PLTV/88888888/224/3221226217/index.m3u8
东方卫视,http://39.134.66.4/PLTV/88888888/224/3221225672/index.m3u8

江苏卫视,http://ottrrs.hl.chinamobile.com/PLTV/88888888/224/3221225613/index.m3u8$ottrrs.hl1
江苏卫视,http://ottrrs.hl.chinamobile.com/PLTV/88888888/224/3221226310/index.m3u8$ottrrs.hl2
江苏卫视,http://ottrrs.hl.chinamobile.com/PLTV/88888888/224/3221226495/index.m3u8$ottrrs.hl3
江苏卫视,http://ottrrs.hl.chinamobile.com/TVOD/88888888/224/3221225613/index.m3u8$ottrrs.hl4
江苏卫视,http://ottrrs.hl.chinamobile.com/TVOD/88888888/224/3221226310/index.m3u8$ottrrs.hl5
江苏卫视,http://dbiptv.sn.chinamobile.com/PLTV/88888888/224/3221225800/index.m3u8
江苏卫视,http://dbiptv.sn.chinamobile.com/PLTV/88888888/224/3221226200/index.m3u8
江苏卫视,http://39.134.66.4/PLTV/88888888/224/3221225503/index.m3u8

浙江卫视,http://ottrrs.hl.chinamobile.com/PLTV/88888888/224/3221225612/index.m3u8$ottrrs.hl1
浙江卫视,http://ottrrs.hl.chinamobile.com/PLTV/88888888/224/3221226339/index.m3u8$ottrrs.hl2
浙江卫视,http://ottrrs.hl.chinamobile.com/PLTV/88888888/224/3221226342/index.m3u8$ottrrs.hl3
浙江卫视,http://ottrrs.hl.chinamobile.com/TVOD/88888888/224/3221225612/index.m3u8$ottrrs.hl4
浙江卫视,http://ottrrs.hl.chinamobile.com/TVOD/88888888/224/3221226339/index.m3u8$ottrrs.hl5
浙江卫视,http://dbiptv.sn.chinamobile.com/PLTV/88888888/224/3221225798/index.m3u8
浙江卫视,http://dbiptv.sn.chinamobile.com/PLTV/88888888/224/3221226199/index.m3u8
浙江卫视,http://39.134.66.4/PLTV/88888888/224/3221225514/index.m3u8

湖南卫视,http://ottrrs.hl.chinamobile.com/PLTV/88888888/224/3221225610/index.m3u8$ottrrs.hl1
湖南卫视,http://ottrrs.hl.chinamobile.com/PLTV/88888888/224/3221226307/index.m3u8$ottrrs.hl2
湖南卫视,http://ottrrs.hl.chinamobile.com/PLTV/88888888/224/3221226430/index.m3u8$ottrrs.hl3
湖南卫视,http://ottrrs.hl.chinamobile.com/TVOD/88888888/224/3221225610/index.m3u8$ottrrs.hl4
湖南卫视,http://ottrrs.hl.chinamobile.com/TVOD/88888888/224/3221226307/index.m3u8$ottrrs.hl5
湖南卫视,http://dbiptv.sn.chinamobile.com/PLTV/88888888/224/3221225799/index.m3u8
湖南卫视,http://dbiptv.sn.chinamobile.com/PLTV/88888888/224/3221226211/index.m3u8
湖南卫视,http://39.134.66.4/PLTV/88888888/224/3221225506/index.m3u8

湖北卫视,http://ottrrs.hl.chinamobile.com/PLTV/88888888/224/3221225627/index.m3u8$ottrrs.hl1
湖北卫视,http://ottrrs.hl.chinamobile.com/PLTV/88888888/224/3221226477/index.m3u8$ottrrs.hl2
湖北卫视,http://ottrrs.hl.chinamobile.com/PLTV/88888888/224/3221226501/index.m3u8$ottrrs.hl3
湖北卫视,http://ottrrs.hl.chinamobile.com/TVOD/88888888/224/3221225627/index.m3u8$ottrrs.hl4
湖北卫视,http://ottrrs.hl.chinamobile.com/TVOD/88888888/224/3221226477/index.m3u8$ottrrs.hl5
湖北卫视,http://dbiptv.sn.chinamobile.com/PLTV/88888888/224/3221226194/index.m3u8
湖北卫视,http://dbiptv.sn.chinamobile.com/PLTV/88888888/224/3221226206/index.m3u8
湖北卫视,http://39.134.66.4/PLTV/88888888/224/3221225569/index.m3u8

北京卫视,http://ottrrs.hl.chinamobile.com/PLTV/88888888/224/3221225728/index.m3u8$ottrrs.hl1
北京卫视,http://ottrrs.hl.chinamobile.com/PLTV/88888888/224/3221226251/index.m3u8$ottrrs.hl2
北京卫视,http://ottrrs.hl.chinamobile.com/PLTV/88888888/224/3221226450/index.m3u8$ottrrs.hl3
北京卫视,http://ottrrs.hl.chinamobile.com/TVOD/88888888/224/3221225728/index.m3u8$ottrrs.hl4
北京卫视,http://ottrrs.hl.chinamobile.com/TVOD/88888888/224/3221226450/index.m3u8$ottrrs.hl5
北京卫视,http://dbiptv.sn.chinamobile.com/PLTV/88888888/224/3221225796/index.m3u8
北京卫视,http://dbiptv.sn.chinamobile.com/PLTV/88888888/224/3221226222/index.m3u8
北京卫视,http://39.134.66.4/PLTV/88888888/224/3221225678/index.m3u8

广东卫视,http://ottrrs.hl.chinamobile.com/PLTV/88888888/224/3221226248/index.m3u8$ottrrs.hl1
广东卫视,http://ottrrs.hl.chinamobile.com/PLTV/88888888/224/3221226374/index.m3u8$ottrrs.hl2
广东卫视,http://ottrrs.hl.chinamobile.com/TVOD/88888888/224/3221226248/index.m3u8$ottrrs.hl3
广东卫视,http://dbiptv.sn.chinamobile.com/PLTV/88888888/224/3221225803/index.m3u8
广东卫视,http://dbiptv.sn.chinamobile.com/PLTV/88888888/224/3221226216/index.m3u8

广西卫视,http://ottrrs.hl.chinamobile.com/PLTV/88888888/224/3221226380/index.m3u8$ottrrs.hl1
广西卫视,http://ottrrs.hl.chinamobile.com/PLTV/88888888/224/3221226549/index.m3u8$ottrrs.hl2
广西卫视,http://ottrrs.hl.chinamobile.com/TVOD/88888888/224/3221226549/index.m3u8$ottrrs.hl3

东南卫视,http://ottrrs.hl.chinamobile.com/PLTV/88888888/224/3221225620/index.m3u8$ottrrs.hl1
东南卫视,http://ottrrs.hl.chinamobile.com/PLTV/88888888/224/3221226341/index.m3u8$ottrrs.hl2
东南卫视,http://ottrrs.hl.chinamobile.com/PLTV/88888888/224/3221226377/index.m3u8$ottrrs.hl3
东南卫视,http://ottrrs.hl.chinamobile.com/TVOD/88888888/224/3221226341/index.m3u8$ottrrs.hl4
东南卫视,http://39.134.66.4/PLTV/88888888/224/3221225950/index.m3u8

深圳卫视,http://ottrrs.hl.chinamobile.com/PLTV/88888888/224/3221225739/index.m3u8$ottrrs.hl1
深圳卫视,http://ottrrs.hl.chinamobile.com/PLTV/88888888/224/3221226313/index.m3u8$ottrrs.hl2
深圳卫视,http://ottrrs.hl.chinamobile.com/TVOD/88888888/224/3221225739/index.m3u8$ottrrs.hl3
深圳卫视,http://ottrrs.hl.chinamobile.com/TVOD/88888888/224/3221226313/index.m3u8$ottrrs.hl4
深圳卫视,http://dbiptv.sn.chinamobile.com/PLTV/88888888/224/3221225801/index.m3u8
深圳卫视,http://dbiptv.sn.chinamobile.com/PLTV/88888888/224/3221226205/index.m3u8
深圳卫视,http://39.134.66.4/PLTV/88888888/224/3221225668/index.m3u8

山东卫视,http://ottrrs.hl.chinamobile.com/PLTV/88888888/224/3221226456/index.m3u8$ottrrs.hl1
山东卫视,http://ottrrs.hl.chinamobile.com/PLTV/88888888/224/3221226507/index.m3u8$ottrrs.hl2
山东卫视,http://ottrrs.hl.chinamobile.com/TVOD/88888888/224/3221226456/index.m3u8$ottrrs.hl3
山东卫视,http://dbiptv.sn.chinamobile.com/PLTV/88888888/224/3221226209/index.m3u8

山西卫视,http://ottrrs.hl.chinamobile.com/PLTV/88888888/224/3221225624/index.m3u8$ottrrs.hl1
山西卫视,http://ottrrs.hl.chinamobile.com/PLTV/88888888/224/3221226392/index.m3u8$ottrrs.hl2

辽宁卫视,http://ottrrs.hl.chinamobile.com/PLTV/88888888/224/3221225619/index.m3u8$ottrrs.hl1
辽宁卫视,http://ottrrs.hl.chinamobile.com/PLTV/88888888/224/3221226254/index.m3u8$ottrrs.hl2
辽宁卫视,http://ottrrs.hl.chinamobile.com/PLTV/88888888/224/3221226546/index.m3u8$ottrrs.hl3
辽宁卫视,http://ottrrs.hl.chinamobile.com/TVOD/88888888/224/3221226546/index.m3u8$ottrrs.hl4
辽宁卫视,http://dbiptv.sn.chinamobile.com/PLTV/88888888/224/3221226201/index.m3u8
辽宁卫视,http://dbiptv.sn.chinamobile.com/PLTV/88888888/224/3221226210/index.m3u8

黑龙江卫视,http://ottrrs.hl.chinamobile.com/PLTV/88888888/224/3221226327/index.m3u8$ottrrs.hl1
黑龙江卫视,http://ottrrs.hl.chinamobile.com/PLTV/88888888/224/3221226419/index.m3u8$ottrrs.hl2
黑龙江卫视,http://ottrrs.hl.chinamobile.com/PLTV/88888888/224/3221226421/index.m3u8$ottrrs.hl3
黑龙江卫视,http://ottrrs.hl.chinamobile.com/PLTV/88888888/224/3221226467/index.m3u8$ottrrs.hl4
黑龙江卫视,http://ottrrs.hl.chinamobile.com/PLTV/88888888/224/3221226525/index.m3u8$ottrrs.hl5
黑龙江卫视,http://ottrrs.hl.chinamobile.com/PLTV/88888888/224/3221226531/index.m3u8$ottrrs.hl6
黑龙江卫视,http://ottrrs.hl.chinamobile.com/PLTV/88888888/224/3221226532/index.m3u8$ottrrs.hl7
黑龙江卫视,http://ottrrs.hl.chinamobile.com/PLTV/88888888/224/3221226582/index.m3u8$ottrrs.hl8
黑龙江卫视,http://ottrrs.hl.chinamobile.com/PLTV/88888888/224/3221226585/index.m3u8$ottrrs.hl9
黑龙江卫视,http://ottrrs.hl.chinamobile.com/TVOD/88888888/224/3221226327/index.m3u8$ottrrs.hl10
黑龙江卫视,http://ottrrs.hl.chinamobile.com/TVOD/88888888/224/3221226531/index.m3u8$ottrrs.hl11
黑龙江卫视,http://dbiptv.sn.chinamobile.com/PLTV/88888888/224/3221225802/index.m3u8
黑龙江卫视,http://dbiptv.sn.chinamobile.com/PLTV/88888888/224/3221226215/index.m3u8

安徽卫视,http://ottrrs.hl.chinamobile.com/PLTV/88888888/224/3221226391/index.m3u8$ottrrs.hl1
安徽卫视,http://ottrrs.hl.chinamobile.com/PLTV/88888888/224/3221226498/index.m3u8$ottrrs.hl2
安徽卫视,http://ottrrs.hl.chinamobile.com/TVOD/88888888/224/3221226391/index.m3u8$ottrrs.hl3
安徽卫视,http://dbiptv.sn.chinamobile.com/PLTV/88888888/224/3221226203/index.m3u8
安徽卫视,http://dbiptv.sn.chinamobile.com/PLTV/88888888/224/3221226196/index.m3u8

贵州卫视,http://ottrrs.hl.chinamobile.com/PLTV/88888888/224/3221225626/index.m3u8$ottrrs.hl1
贵州卫视,http://ottrrs.hl.chinamobile.com/PLTV/88888888/224/3221226383/index.m3u8$ottrrs.hl2
贵州卫视,http://ottrrs.hl.chinamobile.com/PLTV/88888888/224/3221226474/index.m3u8$ottrrs.hl3
贵州卫视,http://ottrrs.hl.chinamobile.com/TVOD/88888888/224/3221226474/index.m3u8$ottrrs.hl4

重庆卫视,http://ottrrs.hl.chinamobile.com/PLTV/88888888/224/3221225618/index.m3u8$ottrrs.hl1
重庆卫视,http://ottrrs.hl.chinamobile.com/PLTV/88888888/224/3221226409/index.m3u8$ottrrs.hl2
重庆卫视,http://ottrrs.hl.chinamobile.com/PLTV/88888888/224/3221226463/index.m3u8$ottrrs.hl3
重庆卫视,http://dbiptv.sn.chinamobile.com/PLTV/88888888/224/3221226202/index.m3u8

天津卫视,http://ottrrs.hl.chinamobile.com/PLTV/88888888/224/3221225740/index.m3u8$ottrrs.hl1
天津卫视,http://ottrrs.hl.chinamobile.com/PLTV/88888888/224/3221226395/index.m3u8$ottrrs.hl2
天津卫视,http://ottrrs.hl.chinamobile.com/PLTV/88888888/224/3221226459/index.m3u8$ottrrs.hl3
天津卫视,http://ottrrs.hl.chinamobile.com/TVOD/88888888/224/3221225740/index.m3u8$ottrrs.hl4
天津卫视,http://ottrrs.hl.chinamobile.com/TVOD/88888888/224/3221226459/index.m3u8$ottrrs.hl5
天津卫视,http://dbiptv.sn.chinamobile.com/PLTV/88888888/224/3221226204/index.m3u8
天津卫视,http://39.134.66.4/PLTV/88888888/224/3221225665/index.m3u8

甘肃卫视,http://ottrrs.hl.chinamobile.com/PLTV/88888888/224/3221225633/index.m3u8$ottrrs.hl1
甘肃卫视,http://ottrrs.hl.chinamobile.com/PLTV/88888888/224/3221226522/index.m3u8$ottrrs.hl2

海南卫视,http://ottrrs.hl.chinamobile.com/PLTV/88888888/224/3221225639/index.m3u8$ottrrs.hl1
海南卫视,http://ottrrs.hl.chinamobile.com/PLTV/88888888/224/3221226445/index.m3u8$ottrrs.hl2
海南卫视,http://ottrrs.hl.chinamobile.com/PLTV/88888888/224/3221226465/index.m3u8$ottrrs.hl3
海南卫视,http://ottrrs.hl.chinamobile.com/TVOD/88888888/224/3221226465/index.m3u8$ottrrs.hl4

河南卫视,http://ottrrs.hl.chinamobile.com/PLTV/88888888/224/3221226320/index.m3u8$ottrrs.hl1
河南卫视,http://ottrrs.hl.chinamobile.com/PLTV/88888888/224/3221226480/index.m3u8$ottrrs.hl2
河南卫视,http://ottrrs.hl.chinamobile.com/TVOD/88888888/224/3221226480/index.m3u8$ottrrs.hl3

河北卫视,http://ottrrs.hl.chinamobile.com/PLTV/88888888/224/3221226406/index.m3u8$ottrrs.hl1
河北卫视,http://ottrrs.hl.chinamobile.com/PLTV/88888888/224/3221226448/index.m3u8$ottrrs.hl2
河北卫视,http://ottrrs.hl.chinamobile.com/TVOD/88888888/224/3221226406/index.m3u8$ottrrs.hl3

吉林卫视,http://ottrrs.hl.chinamobile.com/PLTV/88888888/224/3221226386/index.m3u8$ottrrs.hl1
吉林卫视,http://ottrrs.hl.chinamobile.com/PLTV/88888888/224/3221226397/index.m3u8$ottrrs.hl2
吉林卫视,http://ottrrs.hl.chinamobile.com/TVOD/88888888/224/3221226397/index.m3u8$ottrrs.hl3

江西卫视,http://ottrrs.hl.chinamobile.com/PLTV/88888888/224/3221226344/index.m3u8$ottrrs.hl1
江西卫视,http://ottrrs.hl.chinamobile.com/PLTV/88888888/224/3221226504/index.m3u8$ottrrs.hl2
江西卫视,http://ottrrs.hl.chinamobile.com/TVOD/88888888/224/3221226344/index.m3u8$ottrrs.hl3

四川卫视,http://ottrrs.hl.chinamobile.com/PLTV/88888888/224/3221226338/index.m3u8$ottrrs.hl1
四川卫视,http://ottrrs.hl.chinamobile.com/PLTV/88888888/224/3221226513/index.m3u8$ottrrs.hl2
四川卫视,http://ottrrs.hl.chinamobile.com/TVOD/88888888/224/3221226338/index.m3u8$ottrrs.hl3

内蒙古卫视,http://ottrrs.hl.chinamobile.com/PLTV/88888888/224/3221225634/index.m3u8$ottrrs.hl1
内蒙古卫视,http://ottrrs.hl.chinamobile.com/PLTV/88888888/224/3221226389/index.m3u8$ottrrs.hl2

宁夏卫视,http://ottrrs.hl.chinamobile.com/PLTV/88888888/224/3221225632/index.m3u8$ottrrs.hl1
宁夏卫视,http://ottrrs.hl.chinamobile.com/PLTV/88888888/224/3221226454/index.m3u8$ottrrs.hl2

青海卫视,http://ottrrs.hl.chinamobile.com/PLTV/88888888/224/3221225628/index.m3u8$ottrrs.hl1
青海卫视,http://ottrrs.hl.chinamobile.com/PLTV/88888888/224/3221226323/index.m3u8$ottrrs.hl2

陕西卫视,http://ottrrs.hl.chinamobile.com/PLTV/88888888/224/3221225625/index.m3u8$ottrrs.hl1
陕西卫视,http://ottrrs.hl.chinamobile.com/PLTV/88888888/224/3221226457/index.m3u8$ottrrs.hl2
陕西卫视,http://ottrrs.hl.chinamobile.com/TVOD/88888888/224/3221226457/index.m3u8$ottrrs.hl3

西藏卫视,http://ottrrs.hl.chinamobile.com/PLTV/88888888/224/3221225638/index.m3u8$ottrrs.hl1
西藏卫视,http://ottrrs.hl.chinamobile.com/PLTV/88888888/224/3221226433/index.m3u8$ottrrs.hl2

新疆卫视,http://ottrrs.hl.chinamobile.com/PLTV/88888888/224/3221225635/index.m3u8$ottrrs.hl1
新疆卫视,http://ottrrs.hl.chinamobile.com/PLTV/88888888/224/3221226460/index.m3u8$ottrrs.hl2

云南卫视,http://ottrrs.hl.chinamobile.com/PLTV/88888888/224/3221226444/index.m3u8$ottrrs.hl


我的体育,#genre#
五星体育,http://[2409:8087:5e08:24::11]:6610/000000001000/5000000010000017540/1.m3u8?channel-id=bestzb&Contentid=5000000010000017540&livemode=1&stbId=3$全网络
五星体育,http://gslbserv.itv.cmvideo.cn:80/5000000010000017540/index.m3u8?channel-id=bestzb&Contentid=5000000010000017540&livemode=1&stbId=3$gslbserv
五星体育,http://iptvrr.sh.chinamobile.com:6060/cms001/ch00000090990000001018/index.m3u8$iptvrr.sh
五星体育,http://[2409:8087:5e08:24::11]:6610/000000001000/2000000002000000007/index.m3u8?stbId=3&livemode=1&HlsProfileId=&channel-id=hnbblive&Contentid=2000000002000000007&IASHttpSessionId=OTT19019320240419154124000281
五星体育,http://[2409:8087:5e01:24::16]:6610/000000001000/2000000002000000007/index.m3u8?stbId=3&livemode=1&HlsProfileId=&channel-id=hnbblive&Contentid=2000000002000000007&IAS
五星体育,http://[2409:8087:1e03:21::2]:6060/cms001/ch00000090990000001018/index.m3u8
五星体育,http://117.135.56.6:6060/cms001/ch00000090990000001018/index.m3u8
五星体育,http://111.40.196.33/PLTV/88888888/224/3221225503/index.m3u8

CCTV-5体育,http://ottrrs.hl.chinamobile.com/PLTV/88888888/224/3221226019/index.m3u8$ottrrs.hl1
CCTV-5体育,http://ottrrs.hl.chinamobile.com/TVOD/88888888/224/3221226019/index.m3u8$ottrrs.hl2
CCTV-5体育,http://ottrrs.hl.chinamobile.com/TVOD/88888888/224/3221226469/index.m3u8$ottrrs.hl3
CCTV-5体育,http://gslbserv.itv.cmvideo.cn:80/5000000004000008885/index.m3u8?channel-id=bestzb&Contentid=5000000004000008885&livemode=1&stbId=3$gslbserv
CCTV-5体育,http://dbiptv.sn.chinamobile.com/PLTV/88888888/224/3221226395/index.m3u8
CCTV-5体育,http://39.134.66.4/PLTV/88888888/224/3221225818/index.m3u8

CCTV-5+体育赛事,http://ottrrs.hl.chinamobile.com/PLTV/88888888/224/3221225603/index.m3u8$ottrrs.hl
CCTV-5+体育赛事,http://ottrrs.hl.chinamobile.com/TVOD/88888888/224/3221225603/index.m3u8$ottrrs.hl
CCTV-5+体育赛事,http://gslbserv.itv.cmvideo.cn:80/1000000001000018504/index.m3u8?channel-id=ystenlive&Contentid=1000000001000018504&livemode=1&stbId=3$gslbserv
CCTV-5+体育赛事,http://dbiptv.sn.chinamobile.com/PLTV/88888888/224/3221225761/index.m3u8
CCTV-5+体育赛事,http://dbiptv.sn.chinamobile.com/PLTV/88888888/224/3221226221/index.m3u8
CCTV-5+体育赛事,http://39.134.66.4/PLTV/88888888/224/3221225507/index.m3u8


CCTV-16奥运,http://ottrrs.hl.chinamobile.com/PLTV/88888888/224/3221226100/index.m3u8$ottrrs.hl1
CCTV-16奥运,http://ottrrs.hl.chinamobile.com/TVOD/88888888/224/3221226100/index.m3u8$ottrrs.hl2
CCTV-16奥运,http://dbiptv.sn.chinamobile.com/PLTV/88888888/224/3221226921/index.m3u8
CCTV-16奥运,http://39.134.66.4/PLTV/88888888/224/3221225893/index.m3u8

CCTV-风云足球,http://dbiptv.sn.chinamobile.com/PLTV/88888888/224/3221226984/index.m3u8

CCTV-央视台球,http://dbiptv.sn.chinamobile.com/PLTV/88888888/224/3221226956/index.m3u8

CCTV-高尔夫网球,http://dbiptv.sn.chinamobile.com/PLTV/88888888/224/3221226978/index.m3u8

劲爆体育,http://gslbserv.itv.cmvideo.cn:80/5000000002000029972/index.m3u8?channel-id=bestzb&Contentid=5000000002000029972&livemode=1&stbId=3$gslbserv
劲爆体育,http://223.109.123.97/liveplay-kk.rtxapp.com/live/program/live/jbtyhd8m/8000000/mnf.m3u8

新视觉,http://183.207.255.188/live/program/live/xsjhd/4000000/mnf.m3u8
新视觉,http://223.109.123.97/liveplay-kk.rtxapp.com/live/program/live/xsjhd8m/8000000/mnf.m3u8

魅力足球,http://183.207.255.188/live/program/live/mlyyhd/4000000/mnf.m3u8
魅力足球,http://223.109.123.97/liveplay-kk.rtxapp.com/live/program/live/mlyyhd8m/8000000/mnf.m3u8

NewTV超级体育,http://ottrrs.hl.chinamobile.com/PLTV/88888888/224/3221225715/index.m3u8$ottrrs.hl
NewTV超级体育,http://39.134.65.72:80/ottrrs.hl.chinamobile.com/PLTV/88888888/224/3221225715/index.m3u8$ottrrs.hl
NewTV超级体育,http://39.134.65.208/PLTV/88888888/224/3221225635/index.m3u8
NewTV超级体育,http://39.134.66.4/PLTV/88888888/224/3221225635/index.m3u8
NewTV超级体育,http://39.135.138.58:18890/PLTV/88888910/224/3221225622/index.m3u8
NewTV超级体育,http://39.135.138.59:18890/PLTV/88888910/224/3221225648/index.m3u8
NewTV超级体育,http://39.135.138.59:18890/PLTV/88888910/224/3221225622/index.m3u8
NewTV超级体育,http://39.135.138.59:18890/PLTV/88888910/224/3221225767/index.m3u8

NewTV精品体育,http://ottrrs.hl.chinamobile.com/PLTV/88888888/224/3221225674/index.m3u8$ottrrs.hl
NewTV精品体育,http://ottrrs.hl.chinamobile.com/TVOD/88888888/224/3221225674/1.m3u8$ottrrs.hl
NewTV精品体育,http://39.134.66.4/PLTV/88888888/224/3221225526/index.m3u8

睛彩竞技,http://ottrrs.hl.chinamobile.com/PLTV/88888888/224/3221226124/index.m3u8$ottrrs.hl
睛彩竞技,http://ottrrs.hl.chinamobile.com/PLTV/88888888/224/3221226472/index.m3u8$ottrrs.hl
睛彩篮球,http://ottrrs.hl.chinamobile.com/PLTV/88888888/224/3221226147/index.m3u8$ottrrs.hl
睛彩篮球,http://ottrrs.hl.chinamobile.com/PLTV/88888888/224/3221226469/index.m3u8$ottrrs.hl

我的上海,#genre#
上海都市,http://gslbserv.itv.cmvideo.cn:80/5000000010000018926/index.m3u8?channel-id=bestzb&Contentid=5000000010000018926&livemode=1&stbId=3$gslbserv
上海都市,http://iptvrr.sh.chinamobile.com:6060/cms001/ch00000090990000001015/index.m3u8$iptvrr.sh
上海都市,http://[2409:8087:1e03:21::2]:6060/cms001/ch00000090990000001015/index.m3u8
上海都市,http://111.40.196.29/PLTV/88888888/224/3221225613/index.m3u8
上海都市,http://111.40.196.37/PLTV/88888888/224/3221225613/index.m3u8

上海新闻,http://gslbserv.itv.cmvideo.cn:80/5000000011000031110/index.m3u8?channel-id=bestzb&Contentid=5000000011000031110&livemode=1&stbId=3$gslbserv
上海新闻,http://iptvrr.sh.chinamobile.com:6060/cms001/ch00000090990000001014/index.m3u8$iptvrr.sh
上海新闻,http://[2409:8087:1e03:21::2]:6060/cms001/ch00000090990000001014/index.m3u8
上海新闻,http://111.40.196.29/PLTV/88888888/224/3221225499/index.m3u8?icpid=88888888&RTS=1647065909&from=1&hms_devid=63
上海新闻,http://111.40.196.37/PLTV/88888888/224/3221225499/index.m3u8?icpid=88888888&RTS=1647065909&from=1&hms_devid=63

东方影视,http://gslbserv.itv.cmvideo.cn:80/5000000010000032212/index.m3u8?channel-id=bestzb&Contentid=5000000010000032212&livemode=1&stbId=3$gslbserv
东方影视,http://iptvrr.sh.chinamobile.com:6060/cms001/ch00000090990000001016/index.m3u8$iptvrr.sh
东方影视,http://[2409:8087:1e03:21::2]:6060/cms001/ch00000090990000001016/index.m3u8
东方影视,http://223.109.123.97/liveplay-kk.rtxapp.com/live/program/live/dfyshd8m/8000000/mnf.m3u8
东方影视,http://39.136.172.10/hlsztemgsplive.miguvideo.com/wd_r4/dfl/dianshijuhd/3000/index.m3u8?ProgramID=&encrypt=

ICS外语,http://gslbserv.itv.cmvideo.cn:80/5000000010000030951/index.m3u8?channel-id=bestzb&Contentid=5000000010000030951&livemode=1&stbId=3$gslbserv
ICS外语,http://iptvrr.sh.chinamobile.com:6060/cms001/ch00000090990000001128/index.m3u8$iptvrr.sh
ICS外语,http://[2409:8087:1e03:21::2]:6060/cms001/ch00000090990000001128/index.m3u8
ICS外语,https://cntv.sbs/tv?auth=230813&id=shics
ICS外语,http://183.207.255.188/live/program/live/wypdhd/4000000/mnf.m3u8
ICS外语,http://223.109.123.97/liveplay-kk.rtxapp.com/live/program/live/icshd8m/8000000/mnf.m3u8
ICS外语,http://39.136.172.10/hlsztemgsplive.miguvideo.com/wd_r4/dfl/waiyusd/600/index.m3u8?ProgramID=&encrypt=

东方财经,http://iptvrr.sh.chinamobile.com:6060/cms001/ch00000090990000001318/index.m3u8$iptvrr.sh
第一财经,http://gslbserv.itv.cmvideo.cn:80/5000000010000027146/index.m3u8?channel-id=bestzb&Contentid=5000000010000027146&livemode=1&stbId=3$gslbserv
第一财经,http://iptvrr.sh.chinamobile.com:6060/cms001/ch00000090990000001017/index.m3u8$iptvrr.sh
第一财经,http://[2409:8087:1e03:21::2]:6060/cms001/ch00000090990000001017/index.m3u8
第一财经,http://dbiptv.sn.chinamobile.com/PLTV/88888888/224/3221226966/index.m3u8
第一财经,https://cntv.sbs/tv?auth=230813&id=dycj

全纪实,http://gslbserv.itv.cmvideo.cn:80/5000000006000040025/index.m3u8?channel-id=bestzb&Contentid=5000000006000040025&livemode=1&stbId=3$gslbserv
全纪实,http://[2409:8087:1e03:21::2]:6060/cms001/ch00000090990000001200/index.m3u8
全纪实,http://dbiptv.sn.chinamobile.com/PLTV/88888888/224/3221226580/index.m3u8
全纪实,http://183.207.255.188/live/program/live/qjshd/4000000/mnf.m3u8
全纪实,http://39.136.172.10/hlsztemgsplive.miguvideo.com/wd_r2/ocn/quanjishihd/3000/index.m3u8?ProgramID=&encrypt=

上海点掌财经,https://wsvideo.aniu.tv/live/aniu/playlist.m3u8
上海点掌财经,http://cclive.aniu.tv/live/anzb.m3u8
上海点掌财经,http://cclive2.aniu.tv/live/anzb.m3u8

上海纪实,http://ottrrs.hl.chinamobile.com/PLTV/88888888/224/3221225738/index.m3u8$ottrrs.hl
上海纪实,http://ottrrs.hl.chinamobile.com/TVOD/88888888/224/3221225738/index.m3u8$ottrrs.hl
上海纪实,http://gslbserv.itv.cmvideo.cn:80/5000000001000021713/index.m3u8?channel-id=bestzb&Contentid=5000000001000021713&livemode=1&stbId=3$gslbserv
上海纪实,http://183.207.255.188/live/program/live/jspdhd/4000000/mnf.m3u8
上海纪实,http://dbiptv.sn.chinamobile.com/PLTV/88888888/224/3221226230/index.m3u8
上海纪实,http://39.134.66.4/PLTV/88888888/224/3221225673/index.m3u8

生活时尚,http://gslbserv.itv.cmvideo.cn:80/5000000002000019634/index.m3u8?channel-id=bestzb&Contentid=5000000002000019634&livemode=1&stbId=3$gslbserv
生活时尚,http://[2409:8087:1e03:21::2]:6060/cms001/ch00000090990000001199/index.m3u8
生活时尚,http://183.207.255.188/live/program/live/shsshd/4000000/mnf.m3u8

都市剧场,http://gslbserv.itv.cmvideo.cn:80/5000000002000004412/index.m3u8?channel-id=bestzb&Contentid=5000000002000004412&livemode=1&stbId=3$gslbserv
都市剧场,http://[2409:8087:1e03:21::2]:6060/cms001/ch00000090990000001203/index.m3u8
都市剧场,http://dbiptv.sn.chinamobile.com/PLTV/88888888/224/3221226581/index.m3u8

欢笑剧场,http://gslbserv.itv.cmvideo.cn:80/5000000002000009455/index.m3u8?channel-id=bestzb&Contentid=5000000002000009455&livemode=1&stbId=3$gslbserv
欢笑剧场,http://[2409:8087:1e03:21::2]:6060/cms001/ch00000090990000001193/index.m3u8
欢笑剧场,http://183.207.255.188/live/program/live/hxjchd/4000000/mnf.m3u8

动漫秀场,http://gslbserv.itv.cmvideo.cn:80/5000000002000023636/index.m3u8?channel-id=bestzb&Contentid=5000000002000023636&livemode=1&stbId=3$gslbserv
动漫秀场,http://[2409:8087:1e03:21::2]:6060/cms001/ch00000090990000001196/index.m3u8
动漫秀场,https://cntv.sbs/tv?auth=230813&id=dmxc
动漫秀场,http://183.207.255.188/live/program/live/dmxchd/4000000/mnf.m3u8

哈哈炫动,http://ottrrs.hl.chinamobile.com/PLTV/88888888/224/3221225657/index.m3u8$ottrrs.hl1
哈哈炫动,http://ottrrs.hl.chinamobile.com/TVOD/88888888/224/3221225657/index.m3u8$ottrrs.hl2
哈哈炫动,http://[2409:8087:1e03:21::2]:6060/cms001/ch00000090990000001232/index.m3u8

七彩戏剧,http://iptvrr.sh.chinamobile.com:6060/cms001/ch00000090990000001308/index.m3u8$iptvrr.sh
七彩戏剧,https://cntv.sbs/tv?auth=230813&id=qcxj
七彩戏剧,http://[2409:8087:1e03:21::2]:6060/cms001/ch00000090990000001308/index.m3u8

上海教育,http://iptvrr.sh.chinamobile.com:6060/cms001/ch00000090990000001268/index.m3u8$iptvrr.sh
法治天地,http://iptvrr.sh.chinamobile.com:6060/cms001/ch00000090990000001195/index.m3u8$iptvrr.sh



我的香港,#genre#
凤凰中文,http://[2409:8087:2001:20:2800:0:df6e:eb24]:80/wh7f454c46tw3553140416_-2021535160/ott.mobaibox.com/PLTV/3/224/3221228527/index.m3u8
凤凰中文,http://dbiptv.sn.chinamobile.com/PLTV/88888888/224/3221226547/1.m3u8

凤凰资讯,http://[2409:8087:2001:20:2800:0:df6e:eb27]:80/wh7f454c46tw3352677969_1732462333/ott.mobaibox.com/PLTV/3/224/3221228524/index.m3u8
凤凰资讯,http://dbiptv.sn.chinamobile.com/PLTV/88888888/224/3221226546/1.m3u8

凤凰香港,http://[2409:8087:2001:20:2800:0:df6e:eb1d]:80/ott.mobaibox.com/PLTV/1/224/3221228530/1.m3u8
凤凰香港,http://113.117.74.20:8081/hls/38/index.m3u8

亚洲新闻台,https://d2e1asnsl7br7b.cloudfront.net/7782e205e72f43aeb4a48ec97f66ebbe/index_5.m3u8
亚洲新闻台,http://d2e1asnsl7br7b.cloudfront.net/7782e205e72f43aeb4a48ec97f66ebbe/index_4.m3u8


我的NewTV,#genre#
黑莓电影,http://ottrrs.hl.chinamobile.com/PLTV/88888888/224/3221225743/index.m3u8$ottrrs.hl1
黑莓电影,http://ottrrs.hl.chinamobile.com/TVOD/88888888/224/3221225743/1.m3u8$ottrrs.hl2
黑莓电影,http://39.134.66.4/PLTV/88888888/224/3221225681/index.m3u8

黑莓动画,http://ottrrs.hl.chinamobile.com/PLTV/88888888/224/3221225662/index.m3u8$ottrrs.hl1
黑莓动画,http://ottrrs.hl.chinamobile.com/TVOD/88888888/224/3221225662/1.m3u8$ottrrs.hl2
黑莓动画,http://39.134.66.4/PLTV/88888888/224/3221225529/index.m3u8

游戏风云,http://dbiptv.sn.chinamobile.com/PLTV/88888888/224/3221226579/index.m3u8
游戏风云,http://[2409:8087:1e03:21::2]:6060/cms001/ch00000090990000001192/index.m3u8
游戏风云,http://dbiptv.sn.chinamobile.com/PLTV/88888888/224/3221226803/index.m3u8
游戏风云,http://39.136.172.10/hlsztemgsplive.miguvideo.com/wd_r2/ocn/youxifengyunhd/600/index.m3u8?ProgramID=&encrypt=
游戏风云,http://183.207.255.188/live/program/live/yxfyhd/4000000/mnf.m3u8
游戏风云,http://219.151.31.38/liveplay-kk.rtxapp.com/live/program/live/yxfy8m/8000000/mnf.m3u8
游戏风云,http://223.109.53.84/liveplay-kk.rtxapp.com/live/program/live/yxfyhd/4000000/mnf.m3u8

哒啵电竞,http://dbiptv.sn.chinamobile.com/PLTV/88888888/224/3221226951/index.m3u8

哒啵赛事,http://ottrrs.hl.chinamobile.com/PLTV/88888888/224/3221225675/index.m3u8$ottrrs.hl
哒啵赛事,http://dbiptv.sn.chinamobile.com/PLTV/88888888/224/3221226954/index.m3u8
哒啵赛事,http://39.134.66.4/PLTV/88888888/224/3221225559/index.m3u8

NewTV超级电影,http://ottrrs.hl.chinamobile.com/PLTV/88888888/224/3221225717/index.m3u8$ottrrs.hl
NewTV超级电影,http://39.134.66.4/PLTV/88888888/224/3221225644/index.m3u8

NewTV超级电视剧,http://ottrrs.hl.chinamobile.com/PLTV/88888888/224/3221225716/index.m3u8$ottrrs.hl1
NewTV超级电视剧,http://ottrrs.hl.chinamobile.com/TVOD/88888888/224/3221225716/index.m3u8$ottrrs.hl2
NewTV超级电视剧,http://39.134.66.4/PLTV/88888888/224/3221225637/index.m3u8

NewTV超级综艺,http://ottrrs.hl.chinamobile.com/PLTV/88888888/224/3221225714/index.m3u8$ottrrs.hl
NewTV超级综艺,http://39.134.66.4/PLTV/88888888/224/3221225642/index.m3u8

NewTV金牌综艺,http://ottrrs.hl.chinamobile.com/PLTV/88888888/224/3221225666/index.m3u8$ottrrs.hl
NewTV金牌综艺,http://39.134.66.4/PLTV/88888888/224/3221225525/index.m3u8

NewTV惊悚悬疑,http://ottrrs.hl.chinamobile.com/PLTV/88888888/224/3221225665/index.m3u8$ottrrs.hl
NewTV惊悚悬疑,http://39.134.66.4/PLTV/88888888/224/3221225553/index.m3u8

NewTV动作电影,http://ottrrs.hl.chinamobile.com/PLTV/88888888/224/3221225661/index.m3u8$ottrrs.hl
NewTV动作电影,http://39.134.66.4/PLTV/88888888/224/3221225555/index.m3u8

NewTV精品大剧,http://ottrrs.hl.chinamobile.com/PLTV/88888888/224/3221225670/index.m3u8$ottrrs.hl
NewTV精品大剧,http://39.134.66.4/PLTV/88888888/224/3221225536/index.m3u8

NewTV家庭剧场,http://ottrrs.hl.chinamobile.com/PLTV/88888888/224/3221225677/index.m3u8$ottrrs.hl
NewTV家庭剧场,http://39.134.66.4/PLTV/88888888/224/3221225538/index.m3u8

NewTV欢乐剧场,http://ottrrs.hl.chinamobile.com/PLTV/88888888/224/3221225742/index.m3u8$ottrrs.hl
NewTV欢乐剧场,http://39.134.66.4/PLTV/88888888/224/3221225682/index.m3u8

NewTV爱情喜剧,http://ottrrs.hl.chinamobile.com/PLTV/88888888/224/3221225669/index.m3u8$ottrrs.hl
NewTV爱情喜剧,http://39.134.66.4/PLTV/88888888/224/3221225533/index.m3u8

NewTV古装剧场,http://ottrrs.hl.chinamobile.com/PLTV/88888888/224/3221225663/index.m3u8$ottrrs.hl
NewTV古装剧场,http://39.134.66.4/PLTV/88888888/224/3221225524/index.m3u8

NewTV中国功夫,http://ottrrs.hl.chinamobile.com/PLTV/88888888/224/3221225681/index.m3u8$ottrrs.hl
NewTV中国功夫,http://39.134.66.4/PLTV/88888888/224/3221225604/index.m3u8

NewTV军旅剧场,http://ottrrs.hl.chinamobile.com/PLTV/88888888/224/3221225676/index.m3u8$ottrrs.hl
NewTV军旅剧场,http://39.134.66.4/PLTV/88888888/224/3221225560/index.m3u8

NewTV军事评论,http://ottrrs.hl.chinamobile.com/PLTV/88888888/224/3221225668/index.m3u8$ottrrs.hl
NewTV军事评论,http://39.134.66.4/PLTV/88888888/224/3221225535/index.m3u8

NewTV农业致富,http://ottrrs.hl.chinamobile.com/PLTV/88888888/224/3221225683/index.m3u8$ottrrs.hl
NewTV农业致富,http://39.134.66.4/PLTV/88888888/224/3221225552/index.m3u8

NewTV潮妈辣婆,http://ottrrs.hl.chinamobile.com/PLTV/88888888/224/3221225685/index.m3u8$ottrrs.hl
NewTV潮妈辣婆,http://39.134.66.4/PLTV/88888888/224/3221225542/index.m3u8

NewTV炫舞未来,http://ottrrs.hl.chinamobile.com/PLTV/88888888/224/3221225719/index.m3u8$ottrrs.hl
NewTV炫舞未来,http://39.134.66.4/PLTV/88888888/224/3221225646/index.m3u8

NewTV武搏世界,http://ottrrs.hl.chinamobile.com/PLTV/88888888/224/3221225680/index.m3u8$ottrrs.hl
NewTV武搏世界,http://39.134.66.4/PLTV/88888888/224/3221225547/index.m3u8

NewTV东北热剧,http://ottrrs.hl.chinamobile.com/PLTV/88888888/224/3221225741/index.m3u8$ottrrs.hl
NewTV东北热剧,http://39.134.66.4/PLTV/88888888/224/3221225679/index.m3u8


我的其他,#genre#
CGTN,http://dbiptv.sn.chinamobile.com/PLTV/88888888/224/3221225745/index.m3u8
9台同屏1,http://dbiptv.sn.chinamobile.com/PLTV/88888888/224/3221226337/index.m3u8
9台同屏2,http://dbiptv.sn.chinamobile.com/PLTV/88888888/224/3221226338/index.m3u8
CHC高清电影,http://dbiptv.sn.chinamobile.com/PLTV/88888888/224/3221226463/index.m3u8
CHC高清电影,http://39.134.66.4/PLTV/88888888/224/3221226115/index.m3u8
CHC动作电影,http://dbiptv.sn.chinamobile.com/PLTV/88888888/224/3221226465/index.m3u8
CHC动作电影,http://39.134.66.4/PLTV/88888888/224/3221226117/index.m3u8
CHC家庭影院,http://dbiptv.sn.chinamobile.com/PLTV/88888888/224/3221226462/index.m3u8
CHC家庭影院,http://39.134.66.4/PLTV/88888888/224/3221226122/index.m3u8
金鹰纪实,http://dbiptv.sn.chinamobile.com/PLTV/88888888/224/3221226351/index.m3u8
金鹰纪实,http://dbiptv.sn.chinamobile.com/PLTV/88888890/224/3221226351/index.m3u8
金鹰卡通,http://ottrrs.hl.chinamobile.com/PLTV/88888888/224/3221225653/index.m3u8$ottrrs.hl1
金鹰卡通,http://ottrrs.hl.chinamobile.com/TVOD/88888888/224/3221225653/index.m3u8$ottrrs.hl2
卡酷少儿,http://ottrrs.hl.chinamobile.com/PLTV/88888888/224/3221225654/index.m3u8$ottrrs.hl
优漫卡通,http://ottrrs.hl.chinamobile.com/PLTV/88888888/224/3221225656/index.m3u8$ottrrs.hl
茶频道,http://dbiptv.sn.chinamobile.com/PLTV/88888888/224/3221226808/index.m3u8
求索纪录,http://gslbserv.itv.cmvideo.cn:80/6000000002000032052/index.m3u8?channel-id=wasusyt&Contentid=6000000002000032052&livemode=1&stbId=3$gslbserv
求索纪录,http://39.134.65.162/PLTV/88888888/224/3221225713/index.m3u8
求索纪录,http://39.134.66.4/PLTV/88888888/224/3221225713/index.m3u8
求索科学,http://gslbserv.itv.cmvideo.cn:80/6000000002000032344/index.m3u8?channel-id=wasusyt&Contentid=6000000002000032344&livemode=1&stbId=3$gslbserv
求索科学,http://39.134.65.162/PLTV/88888888/224/3221225728/index.m3u8
求索科学,http://39.134.66.4/PLTV/88888888/224/3221225728/index.m3u8
求索动物,http://gslbserv.itv.cmvideo.cn:80/6000000002000010046/index.m3u8?channel-id=wasusyt&Contentid=6000000002000010046&livemode=1&stbId=3$gslbserv
求索动物,http://39.134.65.162/PLTV/88888888/224/3221225730/index.m3u8
求索动物,http://39.134.66.4/PLTV/88888888/224/3221225730/index.m3u8
求索生活,http://gslbserv.itv.cmvideo.cn:80/6000000002000003382/index.m3u8?channel-id=wasusyt&Contentid=6000000002000003382&livemode=1&stbId=3$gslbserv
求索生活,http://39.134.65.162/PLTV/88888888/224/3221225715/index.m3u8
求索生活,http://39.134.66.4/PLTV/88888888/224/3221225715/index.m3u8


💓咪咕直播,#genre#
咪咕视频-4K,http://111.13.111.242/000000001000/3000000010000005180/index.m3u8?channel-id=FifastbLive&livemode=1&stbId=3&HlsProfileId=$全网络
咪咕视频01,http://111.13.111.242/000000001000/3000000001000005308/index.m3u8?channel-id=FifastbLive&livemode=1&stbId=3&HlsProfileId=$全网络
咪咕视频02,http://111.13.111.242/000000001000/3000000001000005969/index.m3u8?channel-id=FifastbLive&livemode=1&stbId=3&HlsProfileId=$全网络
咪咕视频03,http://111.13.111.242/000000001000/3000000001000007218/index.m3u8?channel-id=FifastbLive&livemode=1&stbId=3&HlsProfileId=$全网络
咪咕视频04,http://111.13.111.242/000000001000/3000000001000008001/index.m3u8?channel-id=FifastbLive&livemode=1&stbId=3&HlsProfileId=$全网络
咪咕视频05,http://111.13.111.242/000000001000/3000000001000008176/index.m3u8?channel-id=FifastbLive&livemode=1&stbId=3&HlsProfileId=$全网络
咪咕视频06,http://111.13.111.242/000000001000/3000000001000008379/index.m3u8?channel-id=FifastbLive&livemode=1&stbId=3&HlsProfileId=$全网络
咪咕视频07,http://111.13.111.242/000000001000/3000000001000010129/index.m3u8?channel-id=FifastbLive&livemode=1&stbId=3&HlsProfileId=$全网络
咪咕视频08,http://111.13.111.242/000000001000/3000000001000010948/index.m3u8?channel-id=FifastbLive&livemode=1&stbId=3&HlsProfileId=$全网络
咪咕视频09,http://111.13.111.242/000000001000/3000000001000026778/index.m3u8?channel-id=FifastbLive&livemode=1&stbId=3&HlsProfileId=$全网络
咪咕视频10,http://111.13.111.242/000000001000/3000000001000028638/index.m3u8?channel-id=FifastbLive&livemode=1&stbId=3&HlsProfileId=$全网络
咪咕视频11,http://111.13.111.242/000000001000/3000000001000031494/index.m3u8?channel-id=FifastbLive&livemode=1&stbId=3&HlsProfileId=$全网络
咪咕视频12,http://111.13.111.242/000000001000/3000000010000000097/index.m3u8?channel-id=FifastbLive&livemode=1&stbId=3&HlsProfileId=$全网络
咪咕视频13,http://111.13.111.242/000000001000/3000000010000002019/index.m3u8?channel-id=FifastbLive&livemode=1&stbId=3&HlsProfileId=$全网络
咪咕视频14,http://111.13.111.242/000000001000/3000000010000002032/index.m3u8?channel-id=FifastbLive&livemode=1&stbId=3&HlsProfileId=$全网络
咪咕视频15,http://111.13.111.242/000000001000/3000000010000002809/index.m3u8?channel-id=FifastbLive&livemode=1&stbId=3&HlsProfileId=$全网络
咪咕视频16,http://111.13.111.242/000000001000/3000000010000003915/index.m3u8?channel-id=FifastbLive&livemode=1&stbId=3&HlsProfileId=$全网络
咪咕视频17,http://111.13.111.242/000000001000/3000000010000004193/index.m3u8?channel-id=FifastbLive&livemode=1&stbId=3&HlsProfileId=$全网络
咪咕视频18,http://111.13.111.242/000000001000/3000000010000004464/index.m3u8?channel-id=FifastbLive&livemode=1&stbId=3&HlsProfileId=$全网络
咪咕视频19,http://111.13.111.242/000000001000/3000000010000005837/index.m3u8?channel-id=FifastbLive&livemode=1&stbId=3&HlsProfileId=$全网络
咪咕视频20,http://111.13.111.242/000000001000/3000000010000006077/index.m3u8?channel-id=FifastbLive&livemode=1&stbId=3&HlsProfileId=$全网络
咪咕视频21,http://111.13.111.242/000000001000/3000000010000006658/index.m3u8?channel-id=FifastbLive&livemode=1&stbId=3&HlsProfileId=$全网络
咪咕视频22,http://111.13.111.242/000000001000/3000000010000006944/index.m3u8?channel-id=FifastbLive&livemode=1&stbId=3&HlsProfileId=$全网络
咪咕视频23,http://111.13.111.242/000000001000/3000000010000007692/index.m3u8?channel-id=FifastbLive&livemode=1&stbId=3&HlsProfileId=$全网络
咪咕视频24,http://111.13.111.242/000000001000/3000000010000009788/index.m3u8?channel-id=FifastbLive&livemode=1&stbId=3&HlsProfileId=$全网络
咪咕视频25,http://111.13.111.242/000000001000/3000000010000010833/index.m3u8?channel-id=FifastbLive&livemode=1&stbId=3&HlsProfileId=$全网络
咪咕视频26,http://111.13.111.242/000000001000/3000000010000011112/index.m3u8?channel-id=FifastbLive&livemode=1&stbId=3&HlsProfileId=$全网络
咪咕视频27,http://111.13.111.242/000000001000/3000000010000011297/index.m3u8?channel-id=FifastbLive&livemode=1&stbId=3&HlsProfileId=$全网络
咪咕视频28,http://111.13.111.242/000000001000/3000000010000011518/index.m3u8?channel-id=FifastbLive&livemode=1&stbId=3&HlsProfileId=$全网络
咪咕视频29,http://111.13.111.242/000000001000/3000000010000011763/index.m3u8?channel-id=FifastbLive&livemode=1&stbId=3&HlsProfileId=$全网络
咪咕视频30,http://111.13.111.242/000000001000/3000000010000011873/index.m3u8?channel-id=FifastbLive&livemode=1&stbId=3&HlsProfileId=$全网络
咪咕视频31,http://111.13.111.242/000000001000/3000000010000012398/index.m3u8?channel-id=FifastbLive&livemode=1&stbId=3&HlsProfileId=$全网络
咪咕视频32,http://111.13.111.242/000000001000/3000000010000012450/index.m3u8?channel-id=FifastbLive&livemode=1&stbId=3&HlsProfileId=$全网络
咪咕视频33,http://111.13.111.242/000000001000/3000000010000012558/index.m3u8?channel-id=FifastbLive&livemode=1&stbId=3&HlsProfileId=$全网络
咪咕视频34,http://111.13.111.242/000000001000/3000000010000012616/index.m3u8?channel-id=FifastbLive&livemode=1&stbId=3&HlsProfileId=$全网络
咪咕视频35,http://111.13.111.242/000000001000/3000000010000015470/index.m3u8?channel-id=FifastbLive&livemode=1&stbId=3&HlsProfileId=$全网络
咪咕视频36,http://111.13.111.242/000000001000/3000000010000015560/index.m3u8?channel-id=FifastbLive&livemode=1&stbId=3&HlsProfileId=$全网络
咪咕视频37,http://111.13.111.242/000000001000/3000000010000017389/index.m3u8?channel-id=FifastbLive&livemode=1&stbId=3&HlsProfileId=$全网络
咪咕视频38,http://111.13.111.242/000000001000/3000000010000017678/index.m3u8?channel-id=FifastbLive&livemode=1&stbId=3&HlsProfileId=$全网络
咪咕视频39,http://111.13.111.242/000000001000/3000000010000017997/index.m3u8?channel-id=FifastbLive&livemode=1&stbId=3&HlsProfileId=$全网络
咪咕视频40,http://111.13.111.242/000000001000/3000000010000019380/index.m3u8?channel-id=FifastbLive&livemode=1&stbId=3&HlsProfileId=$全网络
咪咕视频41,http://111.13.111.242/000000001000/3000000010000019839/index.m3u8?channel-id=FifastbLive&livemode=1&stbId=3&HlsProfileId=$全网络
咪咕视频42,http://111.13.111.242/000000001000/3000000010000020168/index.m3u8?channel-id=FifastbLive&livemode=1&stbId=3&HlsProfileId=$全网络
咪咕视频43,http://111.13.111.242/000000001000/3000000010000021904/index.m3u8?channel-id=FifastbLive&livemode=1&stbId=3&HlsProfileId=$全网络
咪咕视频44,http://111.13.111.242/000000001000/3000000010000023434/index.m3u8?channel-id=FifastbLive&livemode=1&stbId=3&HlsProfileId=$全网络
咪咕视频45,http://111.13.111.242/000000001000/3000000010000024205/index.m3u8?channel-id=FifastbLive&livemode=1&stbId=3&HlsProfileId=$全网络
咪咕视频46,http://111.13.111.242/000000001000/3000000010000024691/index.m3u8?channel-id=FifastbLive&livemode=1&stbId=3&HlsProfileId=$全网络
咪咕视频47,http://111.13.111.242/000000001000/3000000010000025380/index.m3u8?channel-id=FifastbLive&livemode=1&stbId=3&HlsProfileId=$全网络
咪咕视频48,http://111.13.111.242/000000001000/3000000010000025943/index.m3u8?channel-id=FifastbLive&livemode=1&stbId=3&HlsProfileId=$全网络
咪咕视频49,http://111.13.111.242/000000001000/3000000010000027318/index.m3u8?channel-id=FifastbLive&livemode=1&stbId=3&HlsProfileId=$全网络
咪咕视频50,http://111.13.111.242/000000001000/3000000010000027638/index.m3u8?channel-id=FifastbLive&livemode=1&stbId=3&HlsProfileId=$全网络
咪咕视频51,http://111.13.111.242/000000001000/3000000010000027691/index.m3u8?channel-id=FifastbLive&livemode=1&stbId=3&HlsProfileId=$全网络
咪咕视频52,http://111.13.111.242/000000001000/3000000010000031669/index.m3u8?channel-id=FifastbLive&livemode=1&stbId=3&HlsProfileId=$全网络
咪咕视频53,http://111.13.111.242/000000001000/3000000010000032106/index.m3u8?channel-id=FifastbLive&livemode=1&stbId=3&HlsProfileId=$全网络


咪咕@gslbserv,#genre#
咪咕视频01,http://gslbserv.itv.cmvideo.cn:80/3000000010000005180/index.m3u8?channel-id=FifastbLive&Contentid=3000000010000005180&livemode=1&stbId=3
咪咕视频02,http://gslbserv.itv.cmvideo.cn:80/3000000010000015686/index.m3u8?channel-id=FifastbLive&Contentid=3000000010000015686&livemode=1&stbId=3
咪咕视频03,http://gslbserv.itv.cmvideo.cn:80/3000000010000011297/index.m3u8?channel-id=FifastbLive&Contentid=3000000010000011297&livemode=1&stbId=3
咪咕视频04,http://gslbserv.itv.cmvideo.cn:80/3000000001000005969/index.m3u8?channel-id=FifastbLive&Contentid=3000000001000005969&livemode=1&stbId=3
咪咕视频05,http://gslbserv.itv.cmvideo.cn:80/3000000001000007218/index.m3u8?channel-id=FifastbLive&Contentid=3000000001000007218&livemode=1&stbId=3
咪咕视频06,http://gslbserv.itv.cmvideo.cn:80/3000000001000008001/index.m3u8?channel-id=FifastbLive&Contentid=3000000001000008001&livemode=1&stbId=3
咪咕视频07,http://gslbserv.itv.cmvideo.cn:80/3000000001000008176/index.m3u8?channel-id=FifastbLive&Contentid=3000000001000008176&livemode=1&stbId=3
咪咕视频08,http://gslbserv.itv.cmvideo.cn:80/3000000001000008379/index.m3u8?channel-id=FifastbLive&Contentid=3000000001000008379&livemode=1&stbId=3
咪咕视频09,http://gslbserv.itv.cmvideo.cn:80/3000000001000010129/index.m3u8?channel-id=FifastbLive&Contentid=3000000001000010129&livemode=1&stbId=3
咪咕视频10,http://gslbserv.itv.cmvideo.cn:80/3000000001000010948/index.m3u8?channel-id=FifastbLive&Contentid=3000000001000010948&livemode=1&stbId=3
咪咕视频11,http://gslbserv.itv.cmvideo.cn:80/3000000001000026778/index.m3u8?channel-id=FifastbLive&Contentid=3000000001000026778&livemode=1&stbId=3
咪咕视频12,http://gslbserv.itv.cmvideo.cn:80/3000000001000028638/index.m3u8?channel-id=FifastbLive&Contentid=3000000001000028638&livemode=1&stbId=3
咪咕视频13,http://gslbserv.itv.cmvideo.cn:80/3000000001000031494/index.m3u8?channel-id=FifastbLive&Contentid=3000000001000031494&livemode=1&stbId=3
咪咕视频14,http://gslbserv.itv.cmvideo.cn:80/3000000010000000097/index.m3u8?channel-id=FifastbLive&Contentid=3000000010000000097&livemode=1&stbId=3
咪咕视频15,http://gslbserv.itv.cmvideo.cn:80/3000000010000002019/index.m3u8?channel-id=FifastbLive&Contentid=3000000010000002019&livemode=1&stbId=3
咪咕视频16,http://gslbserv.itv.cmvideo.cn:80/3000000010000002032/index.m3u8?channel-id=FifastbLive&Contentid=3000000010000002032&livemode=1&stbId=3
咪咕视频17,http://gslbserv.itv.cmvideo.cn:80/3000000010000002809/index.m3u8?channel-id=FifastbLive&Contentid=3000000010000002809&livemode=1&stbId=3
咪咕视频18,http://gslbserv.itv.cmvideo.cn:80/3000000010000003915/index.m3u8?channel-id=FifastbLive&Contentid=3000000010000003915&livemode=1&stbId=3
咪咕视频19,http://gslbserv.itv.cmvideo.cn:80/3000000010000004193/index.m3u8?channel-id=FifastbLive&Contentid=3000000010000004193&livemode=1&stbId=3
咪咕视频20,http://gslbserv.itv.cmvideo.cn:80/3000000010000004464/index.m3u8?channel-id=FifastbLive&Contentid=3000000010000004464&livemode=1&stbId=3
咪咕视频21,http://gslbserv.itv.cmvideo.cn:80/3000000010000005837/index.m3u8?channel-id=FifastbLive&Contentid=3000000010000005837&livemode=1&stbId=3
咪咕视频22,http://gslbserv.itv.cmvideo.cn:80/3000000010000006077/index.m3u8?channel-id=FifastbLive&Contentid=3000000010000006077&livemode=1&stbId=3
咪咕视频23,http://gslbserv.itv.cmvideo.cn:80/3000000010000006658/index.m3u8?channel-id=FifastbLive&Contentid=3000000010000006658&livemode=1&stbId=3
咪咕视频24,http://gslbserv.itv.cmvideo.cn:80/3000000010000006944/index.m3u8?channel-id=FifastbLive&Contentid=3000000010000006944&livemode=1&stbId=3
咪咕视频25,http://gslbserv.itv.cmvideo.cn:80/3000000010000007692/index.m3u8?channel-id=FifastbLive&Contentid=3000000010000007692&livemode=1&stbId=3
咪咕视频26,http://gslbserv.itv.cmvideo.cn:80/3000000010000009788/index.m3u8?channel-id=FifastbLive&Contentid=3000000010000009788&livemode=1&stbId=3
咪咕视频27,http://gslbserv.itv.cmvideo.cn:80/3000000010000010833/index.m3u8?channel-id=FifastbLive&Contentid=3000000010000010833&livemode=1&stbId=3
咪咕视频28,http://gslbserv.itv.cmvideo.cn:80/3000000010000011112/index.m3u8?channel-id=FifastbLive&Contentid=3000000010000011112&livemode=1&stbId=3
咪咕视频29,http://gslbserv.itv.cmvideo.cn:80/3000000010000011297/index.m3u8?channel-id=FifastbLive&Contentid=3000000010000011297&livemode=1&stbId=3
咪咕视频30,http://gslbserv.itv.cmvideo.cn:80/3000000010000011518/index.m3u8?channel-id=FifastbLive&Contentid=3000000010000011518&livemode=1&stbId=3
咪咕视频31,http://gslbserv.itv.cmvideo.cn:80/3000000010000011763/index.m3u8?channel-id=FifastbLive&Contentid=3000000010000011763&livemode=1&stbId=3
咪咕视频32,http://gslbserv.itv.cmvideo.cn:80/3000000010000011873/index.m3u8?channel-id=FifastbLive&Contentid=3000000010000011873&livemode=1&stbId=3
咪咕视频33,http://gslbserv.itv.cmvideo.cn:80/3000000010000012398/index.m3u8?channel-id=FifastbLive&Contentid=3000000010000012398&livemode=1&stbId=3
咪咕视频34,http://gslbserv.itv.cmvideo.cn:80/3000000010000012450/index.m3u8?channel-id=FifastbLive&Contentid=3000000010000012450&livemode=1&stbId=3
咪咕视频35,http://gslbserv.itv.cmvideo.cn:80/3000000010000012558/index.m3u8?channel-id=FifastbLive&Contentid=3000000010000012558&livemode=1&stbId=3
咪咕视频36,http://gslbserv.itv.cmvideo.cn:80/3000000010000012616/index.m3u8?channel-id=FifastbLive&Contentid=3000000010000012616&livemode=1&stbId=3
咪咕视频37,http://gslbserv.itv.cmvideo.cn:80/3000000010000015470/index.m3u8?channel-id=FifastbLive&Contentid=3000000010000015470&livemode=1&stbId=3
咪咕视频38,http://gslbserv.itv.cmvideo.cn:80/3000000010000015560/index.m3u8?channel-id=FifastbLive&Contentid=3000000010000015560&livemode=1&stbId=3
咪咕视频39,http://gslbserv.itv.cmvideo.cn:80/3000000010000017389/index.m3u8?channel-id=FifastbLive&Contentid=3000000010000017389&livemode=1&stbId=3
咪咕视频40,http://gslbserv.itv.cmvideo.cn:80/3000000010000017678/index.m3u8?channel-id=FifastbLive&Contentid=3000000010000017678&livemode=1&stbId=3
咪咕视频41,http://gslbserv.itv.cmvideo.cn:80/3000000010000017997/index.m3u8?channel-id=FifastbLive&Contentid=3000000010000017997&livemode=1&stbId=3
咪咕视频42,http://gslbserv.itv.cmvideo.cn:80/3000000010000019380/index.m3u8?channel-id=FifastbLive&Contentid=3000000010000019380&livemode=1&stbId=3
咪咕视频43,http://gslbserv.itv.cmvideo.cn:80/3000000010000019839/index.m3u8?channel-id=FifastbLive&Contentid=3000000010000019839&livemode=1&stbId=3
咪咕视频44,http://gslbserv.itv.cmvideo.cn:80/3000000010000020168/index.m3u8?channel-id=FifastbLive&Contentid=3000000010000020168&livemode=1&stbId=3
咪咕视频45,http://gslbserv.itv.cmvideo.cn:80/3000000010000021904/index.m3u8?channel-id=FifastbLive&Contentid=3000000010000021904&livemode=1&stbId=3
咪咕视频46,http://gslbserv.itv.cmvideo.cn:80/3000000010000023434/index.m3u8?channel-id=FifastbLive&Contentid=3000000010000023434&livemode=1&stbId=3
咪咕视频47,http://gslbserv.itv.cmvideo.cn:80/3000000010000024205/index.m3u8?channel-id=FifastbLive&Contentid=3000000010000024205&livemode=1&stbId=3
咪咕视频48,http://gslbserv.itv.cmvideo.cn:80/3000000010000024691/index.m3u8?channel-id=FifastbLive&Contentid=3000000010000024691&livemode=1&stbId=3
咪咕视频49,http://gslbserv.itv.cmvideo.cn:80/3000000010000025380/index.m3u8?channel-id=FifastbLive&Contentid=3000000010000025380&livemode=1&stbId=3
咪咕视频50,http://gslbserv.itv.cmvideo.cn:80/3000000010000027318/index.m3u8?channel-id=FifastbLive&Contentid=3000000010000027318&livemode=1&stbId=3
咪咕视频51,http://gslbserv.itv.cmvideo.cn:80/3000000010000027691/index.m3u8?channel-id=FifastbLive&Contentid=3000000010000027691&livemode=1&stbId=3
咪咕视频52,http://gslbserv.itv.cmvideo.cn:80/3000000010000031669/index.m3u8?channel-id=FifastbLive&Contentid=3000000010000031669&livemode=1&stbId=3
咪咕视频53,http://gslbserv.itv.cmvideo.cn:80/3000000010000032106/index.m3u8?channel-id=FifastbLive&Contentid=3000000010000032106&livemode=1&stbId=3




Test,#genre#
NewTV超级体育_hl_PLTV,http://39.134.65.72:80/ottrrs.hl.chinamobile.com/PLTV/88888888/224/3221225715/index.m3u8$ottrrs.hl
NewTV超级体育_hl_TVOD,http://ottrrs.hl.chinamobile.com/TVOD/88888888/224/3221225715/index.m3u8$ottrrs.hl
咪咕视频·PP体育1[1920*1080],http://39.134.65.162/PLTV/88888888/224/3221225611/index.m3u8
上海新闻(高清),http://111.40.196.36/wh7f454c46tw3313992406_1474476423/PLTV/88888888/224/3221225499/index.m3u8?icpid=88888888&RTS=1647065909&from=1&hms_devid=63
Bestv1,http://117.136.156.66/000000001001/5000000010000030810/index.m3u8?channel-id=bestzb&Contentid=5000000010000030810&livemode=1&stbId=3
Bestv2,http://117.136.156.66/000000001000/5000000011000031110/index.m3u8?channel-id=bestzb&Contentid=5000000011000031110&livemode=1&stbId=3

